Generate population demography dataset — generate_pop_demography • serosim
…
    See also

    Other demography: 
simulate_birth_times(),
simulate_removal_times()

    Examples

## Example 1 -- default
generate_pop_demography(10, times=1:120, age_min=0, removal_min=0, 
removal_max=120, prob_removal=0.3)
#> removal_min is less than the first time step. Setting to min(times).
#> 
#> Joining with `by = join_by(i)`
#> # A tibble: 1,200 × 4
#>        i birth removal times
#>    <int> <int>   <dbl> <int>
#>  1     1    47     102     1
#>  2     1    47     102     2
#>  3     1    47     102     3
#>  4     1    47     102     4
#>  5     1    47     102     5
#>  6     1    47     102     6
#>  7     1    47     102     7
#>  8     1    47     102     8
#>  9     1    47     102     9
#> 10     1    47     102    10
#> # ℹ 1,190 more rows

## Example 2 -- specified birth times
birth_times <- rpois(100, 5)
generate_pop_demography(N=100, times=1:120, birth_times=birth_times, 
age_min=0, removal_min=0, removal_max=120, prob_removal=0.3)
#> removal_min is less than the first time step. Setting to min(times).
#> 
#> Joining with `by = join_by(i)`
#> # A tibble: 12,000 × 4
#>        i birth removal times
#>    <int> <int>   <dbl> <int>
#>  1     1     6     121     1
#>  2     1     6     121     2
#>  3     1     6     121     3
#>  4     1     6     121     4
#>  5     1     6     121     5
#>  6     1     6     121     6
#>  7     1     6     121     7
#>  8     1     6     121     8
#>  9     1     6     121     9
#> 10     1     6     121    10
#> # ℹ 11,990 more rows

## Example 3 -- using auxiliary variables
aux <- list("Sex"=list("name"="sex","options"=c("male", "female"), "proportion"=c(0.5,0.5)),
            "Group"=list("name"="group","options"=c(1, 2, 3, 4), 
            "proportion"=c(0.25,0.25,0.25,0.25)) )
generate_pop_demography(10, 1:120, age_min=0, removal_min=0, removal_max=120, 
prob_removal=0.3, aux=aux)
#> removal_min is less than the first time step. Setting to min(times).
#> 
#> Joining with `by = join_by(i)`
#> # A tibble: 1,200 × 6
#>        i birth removal times sex   group
#>    <int> <int>   <dbl> <int> <chr> <dbl>
#>  1     1    79     121     1 male      1
#>  2     1    79     121     2 male      1
#>  3     1    79     121     3 male      1
#>  4     1    79     121     4 male      1
#>  5     1    79     121     5 male      1
#>  6     1    79     121     6 male      1
#>  7     1    79     121     7 male      1
#>  8     1    79     121     8 male      1
#>  9     1    79     121     9 male      1
#> 10     1    79     121    10 male      1
#> # ℹ 1,190 more rows
…
