Paper case study 2: Multi-pathogen system with multivalent vaccinaton (Diphtheria and Pertussis) • serosim
…
## First, we will specify age modifiers 
## Individuals who are 0-3 are 2 times more likely to be exposed to diphtheria
age_mod_1<-tibble(exposure_id=rep(1,11), column=rep("age",times=11), value=0:10, modifier=c(2,2,2,2,1,1,1,1,1,1,1))

## Individuals who are 0-3 are 2 times more likely to be exposed to pertussis
age_mod_2<-tibble(exposure_id=rep(2,11), column=rep("age",times=11), value=0:10, modifier=c(2,2,2,1,1,1,1,1,1,1,1))

## Individuals who are less than one year old are 3 times more likely be vaccinated than other age classes
age_mod_3<-tibble(exposure_id=rep(3,11), column=rep("age",times=11),  value=0:10, modifier=c(3,1,1,1,1,1,1,1,1,1,1))
age_mod<-rbind(age_mod_1,age_mod_2,age_mod_3)
age_mod

## # A tibble: 33 × 4
##    exposure_id column value modifier
##          <dbl> <chr>  <int>    <dbl>
##  1           1 age        0        2
##  2           1 age        1        2
##  3           1 age        2        2
##  4           1 age        3        2
##  5           1 age        4        1
##  6           1 age        5        1
##  7           1 age        6        1
##  8           1 age        7        1
##  9           1 age        8        1
## 10           1 age        9        1
## # … with 23 more rows
…
